Supported Queries
…
Default query behavior

The default API for the sf_query() function is the REST API because it is both fast and flexible. Every effort has been made so that the format of the results from the REST and SOAP APIs is exactly the same. The only difference will be speed. The REST API uses JSON, which can generally be processed more quickly than XML used in the SOAP API.

soql <- "SELECT Id,
                FirstName, 
                LastName
         FROM Contact
         LIMIT 10"

queried_records <- sf_query(soql) # REST API is the default api_type
queried_records
#> # A tibble: 10 x 3
#>   Id                 FirstName LastName        
#>   <chr>              <chr>     <chr>           
#> 1 0033s000013wlpjAAA Test      Contact-Create-1
#> 2 0033s000013wlpkAAA Test      Contact-Create-2
#> 3 0033s000014CRFoAAO Test      Contact-Create-1
#> 4 0033s000014CRFpAAO Test      Contact-Create-2
#> 5 0033s000014AG4HAAW Test      Contact-Create-1
#> # … with 5 more rows

queried_records <- sf_query(soql, api_type = "SOAP")
queried_records
#> # A tibble: 10 x 3
#>   Id                 FirstName LastName        
#>   <chr>              <chr>     <chr>           
#> 1 0033s000013wlpjAAA Test      Contact-Create-1
#> 2 0033s000013wlpkAAA Test      Contact-Create-2
#> 3 0033s000014CRFoAAO Test      Contact-Create-1
#> 4 0033s000014CRFpAAO Test      Contact-Create-2
#> 5 0033s000014AG4HAAW Test      Contact-Create-1
#> # … with 5 more rows
…
contacts <- sf_query("SELECT Id, FirstName, Account.Id
                     FROM Contact", 
                     api_type = "Bulk 2.0")

accounts <- sf_query("SELECT Id, Name 
                     FROM Account", 
                     api_type = "Bulk 2.0")

nested_query_recs <- accounts %>% 
  left_join(contacts %>% 
              rename(`Contact.Id` = Id, 
                     `Contact.FirstName` = FirstName), 
            by = c("Id" = "Account.Id"))
nested_query_recs
#> # A tibble: 615 x 4
#>   Id              Name                         Contact.Id       Contact.FirstNa…
#>   <chr>           <chr>                        <chr>            <chr>           
#> 1 0013s00000zFdu… KEEP Test Account With Chil… 0033s000012Nkzw… KEEP            
#> 2 0013s00000zFdu… KEEP Test Account With Chil… 0033s000012Nkzx… KEEP            
#> 3 0013s00000zFdu… KEEP Test Account With Chil… 0033s000012Nkzy… KEEP            
#> 4 0013s00000zFdu… KEEP Test Account With Chil… 0033s000012Nkzz… KEEP            
#> 5 0013s00000zFdu… KEEP Test Account With Chil… 0033s000012Nl00… KEEP            
#> # … with 610 more rows

aggregate_query_recs <- nested_query_recs %>% 
  group_by(Id) %>%
  summarize(.groups = 'drop', 
            contacts_n = sum(!is.na(Contact.Id)))
aggregate_query_recs
#> # A tibble: 16 x 2
#>   Id                 contacts_n
#>   <chr>                   <int>
#> 1 0013s00000zFdugAAC        300
#> 2 0013s00000zFgA6AAK          0
#> 3 0013s000014jF2HAAU          0
#> 4 0013s000014jF2vAAE          0
#> 5 0013s000014jFj6AAE         99
#> # … with 11 more rows
…
As you can see above the {salesforcer} package will try to infer the object in the query if not explicitly provided. If it does not guess correctly, then please specify.

Cleanup after performance tests

By keeping track of the account ids used in our tests, it is fairly easy to find and delete these test records from our Org to save space.

# cleanup performance test Contact records ...
contacts_to_delete <- sf_query(
  sprintf("SELECT Id 
          FROM Contact 
          WHERE Account.Id = '%s'",
          new_account$id)
)
sf_delete(contacts_to_delete$Id, "Contact", api_type="Bulk 2.0")
#> # A tibble: 99 x 4
#>   Id                 sf__Id             sf__Created sf__Error
#>   <chr>              <chr>              <lgl>       <lgl>    
#> 1 0033s000017uOvsAAE 0033s000017uOvsAAE FALSE       NA       
#> 2 0033s000017uOvtAAE 0033s000017uOvtAAE FALSE       NA       
#> 3 0033s000017uOvuAAE 0033s000017uOvuAAE FALSE       NA       
#> 4 0033s000017uOvvAAE 0033s000017uOvvAAE FALSE       NA       
#> 5 0033s000017uOvwAAE 0033s000017uOvwAAE FALSE       NA       
#> # … with 94 more rows
…
Relationship queries

Salesforce supports retrieving fields from related objects when querying another object. This is similar to performing a JOIN in SQL, but without having to specify the join keys because Salesforce already knows the relationship between the two objects. There are two types of relationship queries (1. child-to-parent lookups and 2. parent-to-child nested queries) detailed in the sections below.

child-to-parent “lookup” queries

The first type of relationship query and the most common is child to parent. For example, the Contact object (child) to their parent, the Account object. In order to pull down parent object fields with your child record query, you just need to prefix any fields from the related object by concatenating the name of the object with the field name separated by a period. In the example below we are retrieving all Contact object records that have a relationship to an Account.

# child-to-parent relationship (e.g. Account.Name from Contact record)
sf_query(
  "SELECT Id, FirstName, Account.Name
  FROM Contact
  WHERE Account.Id != null"
)
#> # A tibble: 513 x 3
#>   Id                 FirstName Account.Name                        
#>   <chr>              <chr>     <chr>                               
#> 1 0033s000012NkzwAAC KEEP      KEEP Test Account With Child Records
#> 2 0033s000012NkzxAAC KEEP      KEEP Test Account With Child Records
#> 3 0033s000012NkzyAAC KEEP      KEEP Test Account With Child Records
#> 4 0033s000012NkzzAAC KEEP      KEEP Test Account With Child Records
#> 5 0033s000012Nl00AAC KEEP      KEEP Test Account With Child Records
#> # … with 508 more rows

Sometimes you may notice that the requested relationship fields do not appear in the query results. This is because the SOAP and REST APIs do not return any related object information if it does not exist on the record and there is no reliable way to extract and rebuild the empty columns based on the query string. In the example below, if there were Account information an additional column titled "Account.Name" would appear in the results.

# child-to-parent relationship (e.g. Account.Name from Contact record)
sf_query(
  "SELECT Id, FirstName, Account.Name
  FROM Contact
  WHERE Account.Id = null"
)
#> # A tibble: 1,193 x 2
#>   Id                 FirstName
#>   <chr>              <chr>    
#> 1 0033s000013wlpjAAA Test     
#> 2 0033s000013wlpkAAA Test     
#> 3 0033s000014CRFoAAO Test     
#> 4 0033s000014CRFpAAO Test     
#> 5 0033s000014AG4HAAW Test     
#> # … with 1,188 more rows

Note, that the Bulk 1.0 and Bulk 2.0 APIs will return "Account.Name" as a column of all NA values for this query because they return results differently.

Finally, one aspect to note is that the Bulk 2.0 API does not support child-to-parent-grandparent relationships as seen in the example below:

try(
  sf_query("SELECT Id, FirstName, Account.Owner.Id
            FROM Contact", 
           api_type = "Bulk 2.0")
)
#> # A tibble: 1,706 x 3
#>   Id                 FirstName Account.Owner.Id
#>   <chr>              <chr>     <chr>           
#> 1 0033s000012Nd60AAC Jenny     <NA>            
#> 2 0033s000012Nd65AAC Jenny     <NA>            
#> 3 0033s000012Nd6FAAS Jenny     <NA>            
#> 4 0033s000012Nd6UAAS Jenny     <NA>            
#> 5 0033s000012NdARAA0 Jenny     <NA>            
#> # … with 1,701 more rows

parent-to-child “nested” queries

Instead of “looking up” a related field, users can write queries that retrieve the individual records related to a parent. For example, if you would like all of the Accounts and their Contacts you can write the query like so:

sf_query(
  "SELECT Id, Name, 
    (SELECT Id, FirstName FROM Contacts)
  FROM Account"
)
#> # A tibble: 516 x 4
#>   Id              Name                         Contact.FirstName Contact.Id     
#>   <chr>           <chr>                        <chr>             <chr>          
#> 1 0013s00000zFgA… KEEP Test Account With Chil… <NA>              <NA>           
#> 2 0013s00000zFdu… KEEP Test Account With Chil… KEEP              0033s000012Nl0…
#> 3 0013s00000zFdu… KEEP Test Account With Chil… KEEP              0033s000012Nkz…
#> 4 0013s00000zFdu… KEEP Test Account With Chil… KEEP              0033s000012Nkz…
#> 5 0013s00000zFdu… KEEP Test Account With Chil… KEEP              0033s000012Nkz…
#> # … with 511 more rows

At first glance this query may appear the same as a lookup query on the Contact object that includes the account id and name. However, the small difference is that every Account is included, regardless of whether or not they have a Contact. This can be helpful when you want to ensure a query contains all of the parent records and their child records, if they exist. Also, note that the plural object name is used inside the nested query (“Contacts” instead of “Contact”).

Finally, a parent-to-child nested query can also contain a child-to-parent lookup relationship within it. Below is an example where the Owner Id on the Contact is included so you can know who is responsible for the Contacts under each Account.

sf_query(
  "SELECT Name, Owner.Id, 
    (SELECT Id, FirstName, Owner.Id FROM Contacts)
   FROM Account"
)
#> # A tibble: 516 x 5
#>   Name              Contact.FirstName Contact.Id    Contact.Owner.Id Owner.Id   
#>   <chr>             <chr>             <chr>         <chr>            <chr>      
#> 1 KEEP Test Accoun… <NA>              <NA>          <NA>             0056A00000…
#> 2 KEEP Test Accoun… KEEP              0033s000012N… 0056A000000MPRj… 0056A00000…
#> 3 KEEP Test Accoun… KEEP              0033s000012N… 0056A000000MPRj… 0056A00000…
#> 4 KEEP Test Accoun… KEEP              0033s000012N… 0056A000000MPRj… 0056A00000…
#> 5 KEEP Test Accoun… KEEP              0033s000012N… 0056A000000MPRj… 0056A00000…
#> # … with 511 more rows
…
