Transitioning from RForcecom
…
Describe

The RForcecom package has the function rforcecom.getObjectDescription() which returns a data.frame with one row per field on an object. The same function in salesforcer is named sf_describe_object_fields() and also has better printing and datatype casting by using tibbles.

# the RForcecom way
result1 <- RForcecom::rforcecom.getObjectDescription(session, objectName='Account')

# backwards compatible in the salesforcer package
result2 <- salesforcer::rforcecom.getObjectDescription(session, objectName='Account')

# the better way in salesforcer to get object fields
result3 <- salesforcer::sf_describe_object_fields('Account')
result3
#> # A tibble: 68 x 39
#>    aggregatable aiPredictionFie… autoNumber byteLength calculated caseSensitive
#>    <chr>        <chr>            <chr>      <chr>      <chr>      <chr>        
#>  1 true         false            false      18         false      false        
#>  2 false        false            false      0          false      false        
#>  3 true         false            false      18         false      false        
#>  4 true         false            false      765        false      false        
#>  5 true         false            false      120        false      false        
#>  6 true         false            false      18         false      false        
#>  7 true         false            false      765        false      false        
#>  8 true         false            false      120        false      false        
#>  9 true         false            false      240        false      false        
#> 10 true         false            false      60         false      false        
#> # … with 58 more rows, and 33 more variables: compoundFieldName <chr>,
#> #   createable <chr>, custom <chr>, defaultedOnCreate <chr>,
#> #   defaultValue <list>, deprecatedAndHidden <chr>, digits <chr>,
#> #   externalId <chr>, extraTypeInfo <chr>, filterable <chr>, groupable <chr>,
#> #   idLookup <chr>, label <chr>, length <chr>, name <chr>, nameField <chr>,
#> #   namePointing <chr>, nillable <chr>, permissionable <chr>,
#> #   picklistValues <list>, polymorphicForeignKey <chr>, precision <chr>,
#> #   queryByDistance <chr>, referenceTo <chr>, relationshipName <chr>,
#> #   restrictedPicklist <chr>, scale <chr>, searchPrefilterable <chr>,
…
